%FSTAX23Y23*%
%MOIN*%
%SFA1B1*%

%IPPOS*%
%ADD9500C,0.011810*%
%ADD9501C,0.030000*%
%ADD9502C,0.031500*%
%ADD9503C,0.033460*%
%ADD9504C,0.040940*%
%ADD9505C,0.047240*%
%ADD9506C,0.050790*%
%ADD9507C,0.051180*%
%ADD9508C,0.051970*%
%ADD9509C,0.124020*%
%LNpcb1-1*%
%LPD*%
G54D9500*
X0224Y02865D03*
X02295Y02841D03*
X02351Y02865D03*
X02374Y0292D03*
X02351Y02976D03*
X02295Y02999D03*
X0224Y02976D03*
X02216Y0292D03*
X02244Y04255D03*
X023Y04232D03*
X02355Y04255D03*
X02378Y04311D03*
X02355Y04366D03*
X023Y0439D03*
X02244Y04366D03*
X02221Y04311D03*
X04278Y03706D03*
X04334Y03729D03*
X0439Y03706D03*
X04413Y0365D03*
X0439Y03595D03*
X04334Y03571D03*
X04278Y03595D03*
X04255Y0365D03*
G54D9501*
X02615Y03085D03*
Y03165D03*
X0279Y03205D03*
X0304D03*
X02485Y03255D03*
Y03505D03*
X0249Y0374D03*
X02635Y03685D03*
Y03605D03*
X02765Y0388D03*
X03015D03*
X0249Y0399D03*
G54D9502*
X02862Y02945D03*
X03D03*
X02931Y03023D03*
X03Y0359D03*
X02862D03*
X02931Y03668D03*
G54D9503*
X02745Y03365D03*
Y03465D03*
X03045D03*
Y03365D03*
X03Y04015D03*
Y04115D03*
X027D03*
Y04015D03*
G54D9504*
X0228Y03165D03*
Y03265D03*
Y03365D03*
Y03465D03*
X0227Y0373D03*
Y0383D03*
Y0393D03*
G54D9505*
X032Y03089D03*
Y0329D03*
Y03754D03*
Y03955D03*
G54D9506*
X03496Y03195D03*
Y03855D03*
G54D9507*
X04415Y02998D03*
Y03195D03*
Y03391D03*
X0441Y03933D03*
Y0413D03*
Y04326D03*
G54D9508*
X03574Y02958D03*
X04055D03*
Y03431D03*
Y03618D03*
Y04091D03*
X03574D03*
Y03618D03*
Y03431D03*
G54D9509*
X02295Y0292D03*
X023Y04311D03*
X04334Y0365D03*
M02*